hw3
…
library(tidyverse)
data (ny_noaa) 
  ny_noaa = janitor::clean_names(ny_noaa) %>%
  group_by(id)  %>%
    ##units
rename(prcp_mm = prcp, snow_in = snow, tmax_F = tmax, tmin_F = tmin) %>%
separate(date, into = c("year", "month", "day"), sep = "-") 

ny_noaa %>% 
    group_by(snow_in) %>%
   count() %>%
    filter(min_rank(desc(n)) < 2)  

## # A tibble: 282 x 2
## # Groups:   snow_in [282]
##    snow_in       n
##      <int>   <int>
##  1     -13       1
##  2       0 2008508
##  3       3    8790
##  4       5    9748
##  5       8    9962
##  6      10    5106
##  7      13   23095
##  8      15    3672
##  9      18    3226
## 10      20    4797
## # ... with 272 more rows
…
